%!PS-Adobe-3.0 EPSF-3.0
%%Creator: PS_dot.c,v 1.38 2007/02/02 15:18:13 ivo Exp $, ViennaRNA-1.8.2
%%CreationDate: Thu Apr 11 11:08:13 2013
%%Title: RNA Secondary Structure Plot
%%BoundingBox: 66 210 518 662
%%DocumentFonts: Helvetica
%%Pages: 1
%%EndComments

%Options: 
% to switch off outline pairs of sequence comment or
% delete the appropriate line near the end of the file

%%BeginProlog
/RNAplot 100 dict def
RNAplot begin
/fsize  14 def
/outlinecolor {0.2 setgray} bind def
/paircolor    {0.2 setgray} bind def
/seqcolor     {0   setgray} bind def
/cshow  { dup stringwidth pop -2 div fsize -3 div rmoveto show} bind def
/min { 2 copy gt { exch } if pop } bind def
/max { 2 copy lt { exch } if pop } bind def
/drawoutline {
  gsave outlinecolor newpath
  coor 0 get aload pop 0.8 0 360 arc % draw 5' circle of 1st sequence
  currentdict /cutpoint known        % check if cutpoint is defined
  {coor 0 cutpoint getinterval
   {aload pop lineto} forall         % draw outline of 1st sequence
   coor cutpoint get aload pop
   2 copy moveto 0.8 0 360 arc       % draw 5' circle of 2nd sequence
   coor cutpoint coor length cutpoint sub getinterval
   {aload pop lineto} forall}        % draw outline of 2nd sequence
  {coor {aload pop lineto} forall}   % draw outline as a whole
  ifelse
  stroke grestore
} bind def
/drawpairs {
  paircolor
  0.7 setlinewidth
  [9 3.01] 9 setdash
  newpath
  pairs {aload pop
     coor exch 1 sub get aload pop moveto
     coor exch 1 sub get aload pop lineto
  } forall
  stroke
} bind def
% draw bases
/drawbases {
  [] 0 setdash
  seqcolor
  0
  coor {
    aload pop moveto
    dup sequence exch 1 getinterval cshow
    1 add
  } forall
  pop
} bind def

/init {
  /Helvetica findfont fsize scalefont setfont
  1 setlinejoin
  1 setlinecap
  0.8 setlinewidth
  72 216 translate
  % find the coordinate range
  /xmax -1000 def /xmin 10000 def
  /ymax -1000 def /ymin 10000 def
  coor {
      aload pop
      dup ymin lt {dup /ymin exch def} if
      dup ymax gt {/ymax exch def} {pop} ifelse
      dup xmin lt {dup /xmin exch def} if
      dup xmax gt {/xmax exch def} {pop} ifelse
  } forall
  /size {xmax xmin sub ymax ymin sub max} bind def
  72 6 mul size div dup scale
  size xmin sub xmax sub 2 div size ymin sub ymax sub 2 div
  translate
} bind def
end
%%EndProlog
RNAplot begin
% data start here
/sequence (\
AAAAGACUUAGUCCUAACCUUAUUAUUGGUUUUUGCUAGACAUAUACAUGCAAGUAUCCGCACUCCAGUGAGAAUGCCCCCUAAUCUUUCCCACCCAAGCAAGAGGAGCAGGCAUCAGGCACACCAAACAACAGUAGCCCAAAACGCCUUGUUAAACCACACCCCCACGGGUAUUCAGCAGUAAUUAACGUUAAGCAAUAAGUGCAAACUUGACUUAGCCAUAGCAAUUCUUUAGGGUUGGUAAAUCUUGUGCCA\
GCUACCGCGGUCAUACAAGAGACCCAAAUCAAUAAUCAUCCGGCGUAAAGAGUGGCCACAUGUUAUCUACACCAACUAAGAUCGAAGCUCAACUAAGCCGUCAUAAGCCUAAGAUCUAUCUAAGCCCAACCUCAAAACCAUCUUAGCCCCCAUGAUUAAUUUUAACCCACGAAAGCCAGGAUACAAACUGGGAUUAGAUACCCCACUAUGCCCGGCCAUAAAUUUAGAUACCCUCCUUACUUUCGUAUCCGCCUG\
AGAACUACGAGCACAAACGCUUAAAACUCUAAGGACUUGGCGGUGCCCCAAACCCACCUAGAGGAGCCUGUUCUGUAACCGAUAAUCCACGAUUCACCCAACCACCCCUUGCCAACACAGCCUACAUACCGCCGUCGCCAGCUCACCUCCAAUGAGAGACUAACAGUGAGCCUAAUAGACUUUCCCCCCCCCCUAACAAGACAGGUCAAGGUAUAGCCCAUGGGGUGGAAGAAAUGGGCUACAUUUUCUAACUUA\
GAAUAUACGAAAAAGAACAUGAAACCCGUUCUUAGAAGGCGGAUUUAGCAGUAAAGUGAAAUCAUACCCAGUUCACUUUAAGCCGGCUCUGAGGCACGUACAUACCGCCCGUCACCCUCUUCAUAAGCCACUACCACCAAUAAAUAAUAUUCCCCAAAGCUAAAGACGAGGCAAGUCGUAACAAGGUAAGUGUACCGGAAGGUGCACUUAGACUAUC\
) def
/coor [
[120.970 205.674]
[120.611 190.679]
[120.251 175.683]
[112.754 175.863]
[111.604 190.819]
[121.614 202.754]
[120.235 217.905]
[108.795 227.374]
[120.094 238.184]
[121.750 253.734]
[112.981 266.681]
[97.927 270.912]
[83.696 264.430]
[77.008 250.295]
[81.020 235.181]
[93.839 226.224]
[83.980 215.119]
[84.933 199.935]
[96.648 189.669]
[97.798 174.713]
[73.805 155.961]
[63.440 132.369]
[50.815 140.470]
[38.190 148.570]
[25.566 156.671]
[12.941 164.771]
[0.316 172.872]
[-12.308 180.972]
[-24.933 189.073]
[-37.558 197.173]
[-50.182 205.273]
[-50.968 228.024]
[-76.968 241.732]
[-88.046 251.845]
[-99.125 261.957]
[-110.203 272.070]
[-121.282 282.183]
[-132.360 292.296]
[-143.422 302.426]
[-154.469 312.574]
[-149.672 322.431]
[-149.554 334.465]
[-155.016 346.383]
[-165.832 355.570]
[-180.553 359.635]
[-190.541 370.826]
[-200.530 382.017]
[-203.849 390.387]
[-210.568 393.227]
[-220.591 404.386]
[-230.615 415.545]
[-215.686 434.707]
[-216.667 464.359]
[-239.484 491.092]
[-244.874 505.091]
[-241.792 521.198]
[-254.375 531.714]
[-269.679 525.822]
[-271.960 509.582]
[-258.872 499.701]
[-253.482 485.703]
[-259.884 481.795]
[-267.700 494.598]
[-275.516 507.400]
[-288.318 499.584]
[-280.502 486.781]
[-272.686 473.979]
[-279.088 470.071]
[-289.076 481.262]
[-299.064 492.453]
[-290.428 501.192]
[-284.192 512.672]
[-281.206 526.191]
[-282.103 540.791]
[-287.227 555.327]
[-296.579 568.553]
[-309.790 579.229]
[-326.128 586.229]
[-334.449 598.709]
[-335.667 614.484]
[-349.165 620.781]
[-357.486 633.261]
[-353.352 646.000]
[-357.214 658.621]
[-367.462 666.626]
[-380.255 667.298]
[-388.616 679.751]
[-396.977 692.205]
[-391.512 706.728]
[-395.660 721.680]
[-407.825 731.313]
[-423.330 731.922]
[-436.213 723.273]
[-441.520 708.691]
[-437.211 693.785]
[-424.942 684.285]
[-409.431 683.844]
[-401.070 671.390]
[-392.709 658.937]
[-396.632 642.524]
[-387.234 628.102]
[-369.967 624.940]
[-361.646 612.460]
[-361.023 597.578]
[-346.930 590.388]
[-338.609 577.908]
[-344.376 573.114]
[-353.965 584.649]
[-365.500 575.060]
[-355.911 563.525]
[-361.679 558.731]
[-372.428 569.192]
[-383.178 579.654]
[-393.911 590.133]
[-404.627 600.628]
[-397.883 614.170]
[-395.656 629.133]
[-398.164 644.052]
[-405.160 657.464]
[-415.961 668.057]
[-429.507 674.792]
[-444.472 677.009]
[-459.389 674.492]
[-472.797 667.486]
[-483.382 656.678]
[-490.108 643.128]
[-492.315 628.161]
[-489.787 613.246]
[-482.773 599.843]
[-471.958 589.265]
[-458.403 582.548]
[-443.435 580.351]
[-428.522 582.888]
[-415.123 589.912]
[-404.407 579.416]
[-401.859 572.581]
[-393.640 568.904]
[-382.890 558.443]
[-372.140 547.981]
[-376.944 542.221]
[-388.464 551.828]
[-399.983 561.435]
[-409.590 549.915]
[-398.071 540.308]
[-386.551 530.701]
[-391.354 524.942]
[-403.576 533.638]
[-412.977 547.747]
[-429.137 542.620]
[-428.684 525.672]
[-412.273 521.416]
[-400.051 512.720]
[-390.456 492.558]
[-375.485 477.828]
[-357.567 469.690]
[-339.257 468.340]
[-322.883 473.075]
[-310.255 482.464]
[-300.267 471.273]
[-290.279 460.083]
[-294.943 454.209]
[-309.780 456.414]
[-304.271 442.463]
[-308.935 436.589]
[-322.098 443.783]
[-330.161 458.063]
[-346.560 457.949]
[-354.424 443.559]
[-345.664 429.695]
[-329.291 430.620]
[-316.129 423.427]
[-307.629 409.738]
[-296.366 399.713]
[-283.639 393.768]
[-270.748 391.904]
[-258.880 393.743]
[-249.000 398.590]
[-241.774 405.521]
[-231.750 394.363]
[-221.727 383.204]
[-211.720 372.029]
[-201.732 360.838]
[-191.744 349.647]
[-195.683 343.264]
[-208.448 351.142]
[-221.213 359.019]
[-233.978 366.896]
[-241.855 354.131]
[-229.090 346.254]
[-216.325 338.376]
[-203.560 330.499]
[-207.499 324.117]
[-221.980 328.026]
[-236.462 331.935]
[-250.944 335.844]
[-255.727 345.433]
[-264.775 350.758]
[-275.045 350.305]
[-283.232 344.456]
[-297.738 348.272]
[-312.245 352.089]
[-326.751 355.906]
[-341.257 359.722]
[-352.519 371.644]
[-368.409 367.589]
[-372.581 351.730]
[-360.744 340.380]
[-345.074 345.216]
[-330.568 341.399]
[-316.061 337.583]
[-301.555 333.766]
[-287.049 329.949]
[-274.197 315.407]
[-254.853 321.363]
[-240.371 317.454]
[-225.890 313.544]
[-211.408 309.635]
[-187.039 293.750]
[-164.617 301.528]
[-153.570 291.380]
[-150.805 284.629]
[-142.473 281.217]
[-131.394 271.104]
[-120.316 260.992]
[-109.237 250.879]
[-98.159 240.766]
[-87.080 230.653]
[-89.528 223.564]
[-103.707 228.458]
[-115.679 237.494]
[-127.973 228.900]
[-123.598 214.552]
[-108.601 214.279]
[-94.422 209.385]
[-96.869 202.295]
[-111.827 201.170]
[-126.785 200.044]
[-141.742 198.919]
[-156.700 197.793]
[-171.679 197.003]
[-186.672 196.547]
[-201.665 196.092]
[-207.257 210.181]
[-217.332 221.507]
[-230.675 228.700]
[-245.674 230.893]
[-260.517 227.821]
[-273.414 219.855]
[-282.805 207.957]
[-287.558 193.563]
[-287.098 178.411]
[-281.480 164.332]
[-271.384 153.025]
[-258.028 145.856]
[-243.025 143.691]
[-228.187 146.790]
[-215.306 154.780]
[-205.936 166.696]
[-201.210 181.099]
[-186.217 181.554]
[-171.224 182.010]
[-184.709 175.442]
[-194.668 164.224]
[-199.591 150.055]
[-198.733 135.080]
[-192.225 121.565]
[-181.052 111.557]
[-166.905 106.572]
[-151.926 107.363]
[-138.382 113.811]
[-128.325 124.940]
[-123.277 139.065]
[-124.002 154.047]
[-130.390 167.619]
[-141.474 177.725]
[-155.574 182.836]
[-140.617 183.961]
[-125.659 185.087]
[-110.701 186.212]
[-95.744 187.338]
[-73.165 182.239]
[-58.283 192.649]
[-45.658 184.548]
[-33.034 176.448]
[-20.409 168.347]
[-7.784 160.247]
[4.841 152.147]
[17.465 144.046]
[30.090 135.946]
[42.715 127.845]
[55.339 119.745]
[52.198 109.969]
[51.170 99.753]
[52.301 89.548]
[55.541 79.804]
[60.747 70.954]
[67.689 63.388]
[59.609 50.750]
[51.528 38.113]
[43.448 25.475]
[39.313 35.666]
[31.276 44.593]
[19.753 51.121]
[5.452 54.247]
[-10.667 53.165]
[-27.443 47.330]
[-43.582 36.501]
[-54.365 26.074]
[-65.148 15.647]
[-75.931 5.220]
[-91.844 9.927]
[-107.859 5.954]
[-119.591 -5.515]
[-123.877 -21.253]
[-119.630 -36.904]
[-131.523 -28.476]
[-144.758 -22.376]
[-158.883 -18.811]
[-173.419 -17.900]
[-187.871 -19.673]
[-201.747 -24.068]
[-214.578 -30.934]
[-225.926 -40.036]
[-235.408 -51.064]
[-242.701 -63.642]
[-247.560 -77.342]
[-249.821 -91.696]
[-249.408 -106.218]
[-246.336 -120.412]
[-240.712 -133.798]
[-232.729 -145.920]
[-243.512 -156.347]
[-254.295 -166.774]
[-265.078 -177.201]
[-275.861 -187.629]
[-286.644 -198.056]
[-297.427 -208.483]
[-306.878 -202.837]
[-318.821 -201.434]
[-331.279 -205.308]
[-341.881 -214.558]
[-348.304 -228.220]
[-363.349 -224.911]
[-377.294 -231.025]
[-384.876 -244.024]
[-383.368 -258.818]
[-398.853 -262.062]
[-403.356 -276.260]
[-414.657 -286.122]
[-432.149 -284.646]
[-445.000 -296.100]
[-445.517 -312.967]
[-456.851 -322.793]
[-471.934 -319.152]
[-486.265 -325.104]
[-494.332 -338.359]
[-493.033 -353.822]
[-482.868 -365.546]
[-467.745 -369.023]
[-453.480 -362.917]
[-445.558 -349.574]
[-447.024 -334.127]
[-435.691 -324.301]
[-423.169 -327.007]
[-411.180 -321.968]
[-404.145 -310.801]
[-404.795 -297.424]
[-393.493 -287.562]
[-378.816 -285.023]
[-373.506 -270.120]
[-359.052 -273.618]
[-345.146 -267.866]
[-337.201 -254.877]
[-338.441 -239.522]
[-332.967 -244.649]
[-343.221 -255.597]
[-353.474 -266.545]
[-363.728 -277.493]
[-373.981 -288.442]
[-384.235 -299.390]
[-373.286 -309.643]
[-363.033 -298.695]
[-352.779 -287.747]
[-342.526 -276.799]
[-332.272 -265.850]
[-322.019 -254.902]
[-316.545 -260.029]
[-331.880 -265.840]
[-334.247 -282.067]
[-321.212 -292.018]
[-306.183 -285.455]
[-304.621 -269.130]
[-285.926 -255.459]
[-280.271 -235.771]
[-287.000 -219.266]
[-276.217 -208.839]
[-265.434 -198.412]
[-254.651 -187.984]
[-243.868 -177.557]
[-233.085 -167.130]
[-222.302 -156.703]
[-209.641 -165.552]
[-195.492 -171.760]
[-180.399 -175.087]
[-164.942 -175.403]
[-149.716 -172.693]
[-135.308 -167.061]
[-122.273 -158.721]
[-111.115 -147.993]
[-102.263 -135.289]
[-96.060 -121.097]
[-92.748 -105.963]
[-92.454 -90.468]
[-95.192 -75.209]
[-100.859 -60.775]
[-109.238 -47.721]
[-96.467 -52.363]
[-82.873 -51.071]
[-71.092 -44.037]
[-63.432 -32.575]
[-61.421 -18.869]
[-65.504 -5.564]
[-54.721 4.864]
[-43.938 15.291]
[-33.155 25.718]
[-26.692 21.913]
[-34.302 8.987]
[-21.376 1.377]
[-13.766 14.302]
[-7.303 10.497]
[-11.189 -3.991]
[-15.075 -18.479]
[-26.124 -29.803]
[-21.948 -44.100]
[-25.834 -58.588]
[-29.341 -62.109]
[-31.058 -66.200]
[-31.058 -70.115]
[-29.687 -73.234]
[-33.434 -87.758]
[-47.715 -93.535]
[-55.762 -106.461]
[-54.667 -121.470]
[-45.059 -132.820]
[-48.807 -147.345]
[-52.554 -161.869]
[-56.301 -176.394]
[-70.983 -181.130]
[-80.756 -193.067]
[-82.502 -208.395]
[-75.662 -222.224]
[-62.421 -230.140]
[-47.002 -229.618]
[-34.327 -220.824]
[-28.439 -206.564]
[-31.218 -191.389]
[-41.776 -180.141]
[-38.029 -165.616]
[-34.282 -151.092]
[-30.535 -136.567]
[-16.636 -131.282]
[-8.417 -118.675]
[-9.206 -103.469]
[-18.910 -91.505]
[-15.163 -76.981]
[-11.346 -62.474]
[-7.460 -47.986]
[3.311 -37.698]
[-0.587 -22.365]
[3.299 -7.877]
[7.185 6.611]
[14.625 5.667]
[12.737 -9.214]
[10.848 -24.095]
[8.960 -38.975]
[7.071 -53.856]
[21.952 -55.744]
[23.840 -40.864]
[25.729 -25.983]
[27.617 -11.103]
[29.506 3.778]
[36.946 2.834]
[37.090 -12.166]
[37.234 -27.165]
[37.378 -42.164]
[37.522 -57.163]
[23.652 -63.452]
[13.544 -74.843]
[8.949 -89.362]
[10.664 -104.494]
[18.390 -117.618]
[30.790 -126.458]
[45.715 -129.485]
[60.580 -126.173]
[72.808 -117.096]
[80.282 -103.827]
[81.705 -88.665]
[76.833 -74.236]
[66.509 -63.041]
[52.521 -57.020]
[52.377 -42.020]
[52.233 -27.021]
[52.089 -12.022]
[51.946 2.978]
[56.086 17.395]
[64.166 30.033]
[72.246 42.670]
[80.327 55.308]
[130.665 46.358]
[174.231 91.239]
[177.371 76.571]
[180.512 61.904]
[170.253 54.294]
[163.621 43.432]
[161.554 30.922]
[164.318 18.595]
[171.476 8.241]
[181.956 1.353]
[194.208 -1.093]
[197.443 -15.741]
[200.677 -30.388]
[203.911 -45.035]
[195.198 -58.221]
[198.442 -73.688]
[211.719 -82.261]
[227.152 -78.854]
[235.584 -65.487]
[232.013 -50.091]
[218.558 -41.801]
[215.324 -27.154]
[212.090 -12.506]
[208.855 2.141]
[222.020 13.397]
[227.626 29.881]
[224.016 47.005]
[212.112 59.956]
[195.179 65.044]
[192.039 79.712]
[188.898 94.379]
[194.146 99.737]
[203.934 88.371]
[208.892 74.214]
[223.534 70.954]
[234.029 81.670]
[230.466 96.241]
[216.209 100.904]
[204.642 110.453]
[209.890 115.812]
[224.620 112.976]
[239.345 110.118]
[254.065 107.235]
[261.767 102.571]
[268.837 104.368]
[283.567 101.532]
[298.296 98.697]
[313.026 95.862]
[327.756 93.027]
[342.485 90.191]
[357.215 87.356]
[371.945 84.521]
[374.260 63.642]
[383.549 44.823]
[398.684 30.314]
[417.842 21.845]
[438.720 20.418]
[458.813 26.192]
[475.716 38.460]
[487.411 55.741]
[501.746 51.325]
[516.081 46.909]
[530.416 42.493]
[544.752 38.077]
[529.766 14.955]
[537.767 -20.223]
[574.308 -48.399]
[587.628 -55.296]
[600.948 -62.193]
[614.268 -69.091]
[627.588 -75.988]
[640.909 -82.885]
[654.229 -89.783]
[667.549 -96.680]
[680.858 -103.598]
[694.156 -110.538]
[691.433 -120.048]
[693.377 -131.141]
[700.684 -141.467]
[712.879 -148.445]
[715.302 -164.080]
[729.243 -169.324]
[738.496 -181.130]
[734.112 -196.015]
[739.347 -210.623]
[752.187 -219.336]
[767.695 -218.805]
[779.908 -209.233]
[784.130 -194.301]
[778.737 -179.751]
[765.803 -171.178]
[750.302 -171.877]
[741.049 -160.071]
[739.288 -145.281]
[724.685 -139.192]
[729.236 -133.231]
[741.159 -142.332]
[753.083 -151.433]
[765.006 -160.534]
[774.107 -148.611]
[762.184 -139.510]
[750.261 -130.409]
[738.337 -121.307]
[742.888 -115.346]
[756.716 -121.158]
[770.544 -126.970]
[784.372 -132.782]
[798.201 -138.594]
[812.029 -144.406]
[825.857 -150.219]
[825.093 -159.281]
[826.426 -168.263]
[829.779 -176.686]
[834.966 -184.105]
[841.707 -190.127]
[849.638 -194.434]
[858.331 -196.805]
[867.323 -197.117]
[876.133 -195.361]
[884.292 -191.636]
[891.369 -186.148]
[896.989 -179.193]
[910.944 -184.695]
[917.674 -190.677]
[924.952 -190.191]
[938.924 -195.648]
[943.210 -200.411]
[948.459 -202.131]
[953.003 -201.095]
[967.010 -206.462]
[981.017 -211.829]
[995.024 -217.196]
[1009.005 -222.631]
[1022.960 -228.132]
[1036.915 -233.634]
[1050.860 -239.157]
[1064.798 -244.703]
[1078.735 -250.249]
[1077.629 -265.480]
[1083.555 -280.557]
[1096.086 -292.236]
[1113.312 -297.656]
[1132.116 -295.009]
[1145.587 -301.607]
[1159.058 -308.205]
[1156.945 -319.995]
[1161.287 -332.833]
[1172.383 -343.133]
[1188.569 -347.389]
[1201.889 -354.287]
[1215.209 -361.184]
[1219.755 -376.320]
[1233.712 -383.735]
[1248.799 -379.030]
[1256.066 -364.996]
[1251.201 -349.959]
[1237.091 -342.840]
[1222.106 -347.864]
[1208.786 -340.966]
[1195.466 -334.069]
[1198.678 -327.292]
[1205.103 -313.738]
[1208.316 -306.960]
[1217.666 -320.433]
[1233.984 -318.802]
[1240.483 -303.745]
[1230.477 -290.752]
[1214.260 -293.189]
[1195.928 -281.927]
[1177.278 -283.753]
[1165.656 -294.733]
[1152.185 -288.136]
[1138.714 -281.538]
[1141.364 -274.522]
[1155.396 -279.822]
[1170.199 -277.396]
[1160.696 -265.790]
[1146.664 -260.490]
[1149.314 -253.473]
[1163.783 -257.429]
[1165.656 -272.514]
[1173.164 -285.732]
[1185.161 -295.066]
[1199.819 -299.094]
[1214.901 -297.201]
[1228.109 -289.676]
[1237.427 -277.666]
[1241.436 -263.003]
[1239.523 -247.923]
[1231.981 -234.725]
[1219.959 -225.423]
[1205.291 -221.433]
[1190.213 -223.366]
[1177.025 -230.926]
[1167.738 -242.960]
[1153.269 -239.004]
[1143.519 -226.724]
[1130.578 -219.056]
[1116.379 -216.622]
[1102.874 -219.302]
[1091.762 -226.302]
[1084.281 -236.312]
[1070.344 -230.766]
[1056.406 -225.220]
[1051.417 -219.898]
[1042.416 -219.679]
[1028.461 -214.177]
[1014.506 -208.676]
[1012.788 -205.735]
[1009.620 -203.434]
[1005.301 -202.420]
[1000.391 -203.190]
[986.385 -197.822]
[972.378 -192.455]
[958.371 -187.088]
[944.381 -181.676]
[930.409 -176.219]
[916.445 -170.740]
[902.491 -165.238]
[900.689 -144.394]
[888.271 -127.460]
[868.788 -119.418]
[847.887 -122.685]
[831.669 -136.390]
[817.841 -130.578]
[804.013 -124.766]
[790.185 -118.954]
[776.356 -113.142]
[762.528 -107.330]
[748.700 -101.518]
[722.313 -85.644]
[701.096 -97.240]
[687.798 -90.300]
[683.378 -84.497]
[674.446 -83.360]
[661.126 -76.462]
[647.806 -69.565]
[634.486 -62.668]
[621.165 -55.771]
[607.845 -48.873]
[594.525 -41.976]
[581.205 -35.079]
[582.398 -27.674]
[595.745 -34.520]
[606.380 -23.942]
[599.606 -10.559]
[584.785 -12.865]
[585.978 -5.461]
[600.791 -3.098]
[615.604 -0.735]
[630.416 1.628]
[645.229 3.991]
[661.823 0.516]
[669.756 15.499]
[657.555 27.270]
[642.866 18.804]
[628.053 16.441]
[613.241 14.078]
[598.428 11.715]
[583.615 9.352]
[581.823 16.635]
[596.389 20.219]
[610.954 23.803]
[625.519 27.388]
[636.342 37.774]
[621.935 41.953]
[607.370 38.369]
[592.804 34.784]
[578.239 31.200]
[576.447 38.483]
[590.664 43.264]
[604.882 48.045]
[619.100 52.825]
[633.317 57.606]
[647.535 62.387]
[659.513 52.664]
[674.848 50.983]
[688.648 57.880]
[696.509 71.154]
[695.922 86.571]
[687.075 99.209]
[672.791 105.037]
[657.627 102.195]
[646.423 91.590]
[642.754 76.605]
[628.536 71.824]
[614.319 67.043]
[600.101 62.262]
[585.883 57.481]
[571.666 52.700]
[583.649 61.722]
[589.816 75.396]
[588.645 90.350]
[580.425 102.897]
[567.183 109.944]
[552.184 109.752]
[539.127 102.369]
[531.231 89.615]
[530.443 74.636]
[536.958 61.124]
[549.167 52.413]
[534.832 56.829]
[520.497 61.245]
[506.162 65.660]
[491.826 70.076]
[492.605 76.535]
[492.682 83.040]
[492.057 89.515]
[490.738 95.885]
[488.739 102.075]
[486.085 108.014]
[498.471 116.474]
[510.858 124.935]
[523.244 133.395]
[535.631 141.855]
[548.017 150.315]
[560.404 158.775]
[573.891 151.540]
[589.196 151.412]
[602.802 158.422]
[611.582 170.959]
[613.518 186.141]
[608.167 200.481]
[596.757 210.682]
[581.910 214.401]
[567.038 210.783]
[555.559 200.660]
[550.110 186.357]
[551.943 171.162]
[539.557 162.702]
[527.170 154.241]
[514.784 145.781]
[502.397 137.321]
[490.011 128.861]
[477.624 120.401]
[469.999 127.688]
[461.214 133.537]
[451.537 137.768]
[441.264 140.248]
[430.710 140.898]
[420.197 139.698]
[410.048 136.680]
[400.574 131.935]
[392.068 125.607]
[384.791 117.888]
[378.968 109.012]
[374.780 99.251]
[360.050 102.086]
[345.320 104.921]
[330.591 107.756]
[315.861 110.592]
[301.132 113.427]
[286.402 116.262]
[271.672 119.097]
[256.947 121.956]
[242.227 124.838]
[236.342 129.149]
[227.455 127.706]
[212.725 130.541]
[209.448 137.287]
[223.734 141.861]
[238.019 146.435]
[252.305 151.008]
[267.258 149.818]
[279.454 158.551]
[283.144 173.090]
[276.589 186.582]
[262.878 192.667]
[248.475 188.476]
[240.170 175.988]
[227.744 167.585]
[215.319 159.182]
[202.893 150.779]
[199.616 157.526]
[206.492 170.857]
[213.368 184.188]
[226.571 192.906]
[225.528 207.764]
[232.404 221.095]
[245.607 229.813]
[244.564 244.671]
[257.767 253.390]
[256.724 268.248]
[263.600 281.579]
[270.476 294.910]
[285.501 293.044]
[300.230 296.426]
[312.890 304.627]
[321.963 316.641]
[326.369 331.008]
[325.596 345.987]
[319.755 359.772]
[309.571 370.706]
[322.715 373.271]
[331.878 382.771]
[333.906 395.617]
[328.286 407.129]
[343.568 410.444]
[353.104 422.837]
[352.390 438.459]
[341.765 449.932]
[326.244 451.839]
[313.156 443.280]
[308.682 428.296]
[314.933 413.963]
[298.678 409.430]
[290.627 394.215]
[296.239 377.582]
[281.426 379.542]
[266.808 376.309]
[254.155 368.255]
[245.003 356.335]
[240.474 341.977]
[241.131 326.908]
[246.915 312.947]
[257.145 301.786]
[250.269 288.455]
[243.393 275.124]
[230.683 267.359]
[231.233 251.547]
[218.522 243.783]
[219.073 227.971]
[212.197 214.640]
[199.486 206.876]
[200.037 191.064]
[193.161 177.733]
[186.285 164.402]
[179.121 166.621]
[183.560 180.949]
[187.998 195.277]
[192.437 209.605]
[196.876 223.934]
[201.315 238.262]
[205.753 252.590]
[210.192 266.918]
[195.864 271.357]
[191.425 257.029]
[186.986 242.701]
[182.548 228.372]
[178.109 214.044]
[173.670 199.716]
[169.231 185.388]
[164.793 171.060]
[157.629 173.279]
[159.493 188.163]
[161.358 203.046]
[163.223 217.930]
[165.088 232.814]
[166.952 247.697]
[168.817 262.581]
[170.682 277.465]
[172.547 292.348]
[174.412 307.232]
[184.739 319.970]
[178.619 335.185]
[162.347 337.224]
[152.662 323.989]
[159.528 309.097]
[157.663 294.213]
[155.798 279.329]
[153.934 264.446]
[152.069 249.562]
[150.204 234.678]
[148.339 219.795]
[146.474 204.911]
[144.610 190.027]
[142.745 175.144]
[135.247 175.324]
[135.607 190.319]
[135.966 205.315]
[136.326 220.311]
[136.685 235.306]
[129.499 248.473]
[121.689 235.666]
] def
/pairs [
[4 20]
[5 19]
[8 16]
[22 291]
[23 290]
[24 289]
[25 288]
[26 287]
[27 286]
[28 285]
[29 284]
[30 283]
[31 282]
[33 227]
[34 226]
[35 225]
[36 224]
[37 223]
[38 222]
[39 220]
[40 219]
[45 183]
[46 182]
[47 181]
[49 180]
[50 179]
[51 178]
[54 61]
[55 60]
[68 160]
[69 159]
[70 158]
[78 106]
[79 105]
[81 103]
[82 102]
[86 99]
[87 98]
[88 97]
[111 139]
[112 138]
[113 137]
[114 135]
[115 134]
[146 152]
[147 151]
[164 171]
[165 170]
[192 217]
[193 216]
[194 215]
[195 214]
[199 212]
[200 211]
[201 210]
[202 209]
[203 208]
[235 280]
[236 279]
[237 278]
[238 277]
[239 276]
[240 261]
[241 260]
[242 259]
[297 508]
[298 507]
[299 506]
[300 505]
[307 425]
[308 424]
[309 423]
[310 422]
[315 416]
[331 401]
[332 400]
[333 399]
[334 398]
[335 397]
[336 396]
[337 395]
[342 374]
[346 370]
[348 368]
[349 367]
[352 363]
[353 362]
[387 392]
[430 471]
[431 470]
[432 469]
[434 467]
[435 466]
[439 465]
[440 464]
[444 460]
[445 459]
[446 458]
[447 457]
[482 504]
[483 503]
[484 502]
[485 501]
[486 500]
[510 539]
[511 538]
[512 537]
[519 532]
[520 531]
[521 530]
[522 529]
[548 867]
[549 866]
[550 864]
[551 863]
[553 862]
[554 861]
[555 860]
[556 859]
[557 858]
[558 857]
[559 856]
[560 855]
[568 813]
[569 812]
[570 811]
[571 810]
[572 809]
[575 750]
[576 749]
[577 748]
[578 747]
[579 746]
[580 745]
[581 744]
[582 743]
[583 741]
[584 740]
[588 603]
[590 601]
[591 600]
[612 738]
[613 737]
[614 736]
[615 735]
[616 734]
[617 733]
[618 732]
[630 727]
[631 726]
[633 725]
[634 724]
[637 723]
[638 722]
[639 721]
[640 720]
[641 716]
[642 715]
[643 714]
[644 712]
[645 711]
[646 710]
[651 681]
[652 680]
[653 679]
[657 668]
[658 667]
[659 666]
[671 676]
[687 704]
[688 703]
[756 768]
[757 767]
[758 766]
[759 765]
[760 764]
[778 798]
[779 797]
[780 796]
[781 795]
[782 794]
[783 793]
[819 843]
[820 842]
[821 841]
[822 840]
[823 839]
[824 838]
[825 837]
[882 935]
[883 934]
[884 933]
[886 931]
[887 930]
[889 928]
[891 926]
[892 925]
[893 924]
[901 916]
[905 913]
[952 975]
[953 974]
[954 973]
[955 972]
[956 971]
[957 970]
[958 969]
[959 968]
[960 967]
[961 966]
] def

init

% switch off outline pairs or bases by removing these lines
drawoutline
drawpairs
drawbases
% show it
showpage
end
%%EOF
