%!PS-Adobe-3.0 EPSF-3.0
%%Creator: PS_dot.c,v 1.38 2007/02/02 15:18:13 ivo Exp $, ViennaRNA-1.8.2
%%CreationDate: Thu Apr 11 11:08:16 2013
%%Title: RNA Secondary Structure Plot
%%BoundingBox: 66 210 518 662
%%DocumentFonts: Helvetica
%%Pages: 1
%%EndComments

%Options: 
% to switch off outline pairs of sequence comment or
% delete the appropriate line near the end of the file

%%BeginProlog
/RNAplot 100 dict def
RNAplot begin
/fsize  14 def
/outlinecolor {0.2 setgray} bind def
/paircolor    {0.2 setgray} bind def
/seqcolor     {0   setgray} bind def
/cshow  { dup stringwidth pop -2 div fsize -3 div rmoveto show} bind def
/min { 2 copy gt { exch } if pop } bind def
/max { 2 copy lt { exch } if pop } bind def
/drawoutline {
  gsave outlinecolor newpath
  coor 0 get aload pop 0.8 0 360 arc % draw 5' circle of 1st sequence
  currentdict /cutpoint known        % check if cutpoint is defined
  {coor 0 cutpoint getinterval
   {aload pop lineto} forall         % draw outline of 1st sequence
   coor cutpoint get aload pop
   2 copy moveto 0.8 0 360 arc       % draw 5' circle of 2nd sequence
   coor cutpoint coor length cutpoint sub getinterval
   {aload pop lineto} forall}        % draw outline of 2nd sequence
  {coor {aload pop lineto} forall}   % draw outline as a whole
  ifelse
  stroke grestore
} bind def
/drawpairs {
  paircolor
  0.7 setlinewidth
  [9 3.01] 9 setdash
  newpath
  pairs {aload pop
     coor exch 1 sub get aload pop moveto
     coor exch 1 sub get aload pop lineto
  } forall
  stroke
} bind def
% draw bases
/drawbases {
  [] 0 setdash
  seqcolor
  0
  coor {
    aload pop moveto
    dup sequence exch 1 getinterval cshow
    1 add
  } forall
  pop
} bind def

/init {
  /Helvetica findfont fsize scalefont setfont
  1 setlinejoin
  1 setlinecap
  0.8 setlinewidth
  72 216 translate
  % find the coordinate range
  /xmax -1000 def /xmin 10000 def
  /ymax -1000 def /ymin 10000 def
  coor {
      aload pop
      dup ymin lt {dup /ymin exch def} if
      dup ymax gt {/ymax exch def} {pop} ifelse
      dup xmin lt {dup /xmin exch def} if
      dup xmax gt {/xmax exch def} {pop} ifelse
  } forall
  /size {xmax xmin sub ymax ymin sub max} bind def
  72 6 mul size div dup scale
  size xmin sub xmax sub 2 div size ymin sub ymax sub 2 div
  translate
} bind def
end
%%EndProlog
RNAplot begin
% data start here
/sequence (\
GCUCUUCUAGUAUACUUAUUACAAUUGACUUCCAAUCUCUAAAAUCUGGUACCCAGCCCAGAGAAGAGCA\
) def
/coor [
[112.438 223.996]
[111.774 209.010]
[111.111 194.025]
[110.447 179.040]
[109.784 164.055]
[109.120 149.069]
[108.457 134.084]
[92.546 132.528]
[79.779 124.315]
[72.581 111.871]
[57.761 114.185]
[42.940 116.499]
[35.012 129.978]
[20.257 135.158]
[5.643 129.594]
[-1.930 115.913]
[1.113 100.574]
[13.336 90.821]
[28.967 91.258]
[40.626 101.678]
[55.447 99.365]
[70.267 97.051]
[74.576 84.304]
[84.041 74.740]
[70.272 67.458]
[65.839 52.904]
[72.866 39.822]
[68.294 25.536]
[53.754 19.782]
[46.359 6.003]
[49.602 -9.295]
[61.952 -18.888]
[77.576 -18.247]
[89.098 -7.675]
[91.078 7.837]
[82.580 20.964]
[87.152 35.250]
[100.470 41.821]
[105.310 56.244]
[98.328 70.168]
[109.539 70.582]
[120.183 75.201]
[128.689 83.647]
[133.695 94.959]
[134.263 107.701]
[149.259 108.033]
[164.255 108.364]
[179.252 108.696]
[194.248 109.028]
[203.537 96.598]
[218.367 92.034]
[233.037 97.091]
[241.906 109.824]
[241.562 125.337]
[232.139 137.666]
[217.260 142.069]
[202.646 136.853]
[193.916 124.024]
[178.920 123.693]
[163.923 123.361]
[148.927 123.029]
[133.931 122.697]
[123.442 133.420]
[124.106 148.406]
[124.769 163.391]
[125.433 178.376]
[126.096 193.362]
[126.760 208.347]
[127.423 223.332]
[130.464 242.474]
] def
/pairs [
[1 69]
[2 68]
[3 67]
[4 66]
[5 65]
[6 64]
[7 63]
[10 22]
[11 21]
[12 20]
[24 40]
[27 37]
[28 36]
[45 62]
[46 61]
[47 60]
[48 59]
[49 58]
] def

init

% switch off outline pairs or bases by removing these lines
drawoutline
drawpairs
drawbases
% show it
showpage
end
%%EOF
