%!PS-Adobe-3.0 EPSF-3.0
%%Creator: PS_dot.c,v 1.38 2007/02/02 15:18:13 ivo Exp $, ViennaRNA-1.8.2
%%CreationDate: Thu Apr 11 11:08:16 2013
%%Title: RNA Secondary Structure Plot
%%BoundingBox: 66 210 518 662
%%DocumentFonts: Helvetica
%%Pages: 1
%%EndComments

%Options: 
% to switch off outline pairs of sequence comment or
% delete the appropriate line near the end of the file

%%BeginProlog
/RNAplot 100 dict def
RNAplot begin
/fsize  14 def
/outlinecolor {0.2 setgray} bind def
/paircolor    {0.2 setgray} bind def
/seqcolor     {0   setgray} bind def
/cshow  { dup stringwidth pop -2 div fsize -3 div rmoveto show} bind def
/min { 2 copy gt { exch } if pop } bind def
/max { 2 copy lt { exch } if pop } bind def
/drawoutline {
  gsave outlinecolor newpath
  coor 0 get aload pop 0.8 0 360 arc % draw 5' circle of 1st sequence
  currentdict /cutpoint known        % check if cutpoint is defined
  {coor 0 cutpoint getinterval
   {aload pop lineto} forall         % draw outline of 1st sequence
   coor cutpoint get aload pop
   2 copy moveto 0.8 0 360 arc       % draw 5' circle of 2nd sequence
   coor cutpoint coor length cutpoint sub getinterval
   {aload pop lineto} forall}        % draw outline of 2nd sequence
  {coor {aload pop lineto} forall}   % draw outline as a whole
  ifelse
  stroke grestore
} bind def
/drawpairs {
  paircolor
  0.7 setlinewidth
  [9 3.01] 9 setdash
  newpath
  pairs {aload pop
     coor exch 1 sub get aload pop moveto
     coor exch 1 sub get aload pop lineto
  } forall
  stroke
} bind def
% draw bases
/drawbases {
  [] 0 setdash
  seqcolor
  0
  coor {
    aload pop moveto
    dup sequence exch 1 getinterval cshow
    1 add
  } forall
  pop
} bind def

/init {
  /Helvetica findfont fsize scalefont setfont
  1 setlinejoin
  1 setlinecap
  0.8 setlinewidth
  72 216 translate
  % find the coordinate range
  /xmax -1000 def /xmin 10000 def
  /ymax -1000 def /ymin 10000 def
  coor {
      aload pop
      dup ymin lt {dup /ymin exch def} if
      dup ymax gt {/ymax exch def} {pop} ifelse
      dup xmin lt {dup /xmin exch def} if
      dup xmax gt {/xmax exch def} {pop} ifelse
  } forall
  /size {xmax xmin sub ymax ymin sub max} bind def
  72 6 mul size div dup scale
  size xmin sub xmax sub 2 div size ymin sub ymax sub 2 div
  translate
} bind def
end
%%EndProlog
RNAplot begin
% data start here
/sequence (\
CAUUAAGAAGCUAUGUAACCAGCACUAGCCUUUUAAGCUAGAGAAGAGGGCACUCCCCUCCUUAAUGA\
) def
/coor [
[111.105 225.126]
[110.422 210.142]
[109.739 195.158]
[109.057 180.173]
[108.374 165.189]
[107.691 150.204]
[107.009 135.220]
[90.339 132.718]
[77.486 123.187]
[70.993 109.502]
[56.028 110.525]
[41.063 111.549]
[32.935 124.767]
[18.577 130.651]
[3.510 126.940]
[-6.472 115.060]
[-7.531 99.579]
[0.740 86.450]
[15.161 80.721]
[30.187 84.596]
[40.039 96.584]
[55.004 95.560]
[69.969 94.537]
[76.323 80.737]
[88.541 71.709]
[86.498 56.849]
[84.456 41.988]
[82.413 27.128]
[80.371 12.268]
[67.039 4.095]
[62.129 -10.752]
[67.959 -25.262]
[81.777 -32.584]
[97.057 -29.262]
[106.586 -16.862]
[105.863 -1.242]
[95.231 10.225]
[97.274 25.086]
[99.316 39.946]
[101.359 54.806]
[103.401 69.667]
[113.928 71.634]
[123.469 77.261]
[130.755 86.087]
[134.721 97.215]
[134.659 109.396]
[149.562 111.099]
[164.465 112.803]
[179.368 114.507]
[194.271 116.211]
[207.674 107.394]
[222.879 112.513]
[228.221 127.641]
[219.603 141.172]
[203.635 142.727]
[192.567 131.113]
[177.664 129.410]
[162.761 127.706]
[147.859 126.002]
[132.956 124.299]
[121.993 134.537]
[122.676 149.521]
[123.358 164.506]
[124.041 179.490]
[124.724 194.475]
[125.407 209.459]
[126.089 224.444]
[129.154 243.581]
] def
/pairs [
[1 67]
[2 66]
[3 65]
[4 64]
[5 63]
[6 62]
[7 61]
[10 23]
[11 22]
[12 21]
[25 41]
[26 40]
[27 39]
[28 38]
[29 37]
[46 60]
[47 59]
[48 58]
[49 57]
[50 56]
] def

init

% switch off outline pairs or bases by removing these lines
drawoutline
drawpairs
drawbases
% show it
showpage
end
%%EOF
