%!PS-Adobe-3.0 EPSF-3.0
%%Creator: PS_dot.c,v 1.38 2007/02/02 15:18:13 ivo Exp $, ViennaRNA-1.8.2
%%CreationDate: Thu Apr 11 11:08:15 2013
%%Title: RNA Secondary Structure Plot
%%BoundingBox: 66 210 518 662
%%DocumentFonts: Helvetica
%%Pages: 1
%%EndComments

%Options: 
% to switch off outline pairs of sequence comment or
% delete the appropriate line near the end of the file

%%BeginProlog
/RNAplot 100 dict def
RNAplot begin
/fsize  14 def
/outlinecolor {0.2 setgray} bind def
/paircolor    {0.2 setgray} bind def
/seqcolor     {0   setgray} bind def
/cshow  { dup stringwidth pop -2 div fsize -3 div rmoveto show} bind def
/min { 2 copy gt { exch } if pop } bind def
/max { 2 copy lt { exch } if pop } bind def
/drawoutline {
  gsave outlinecolor newpath
  coor 0 get aload pop 0.8 0 360 arc % draw 5' circle of 1st sequence
  currentdict /cutpoint known        % check if cutpoint is defined
  {coor 0 cutpoint getinterval
   {aload pop lineto} forall         % draw outline of 1st sequence
   coor cutpoint get aload pop
   2 copy moveto 0.8 0 360 arc       % draw 5' circle of 2nd sequence
   coor cutpoint coor length cutpoint sub getinterval
   {aload pop lineto} forall}        % draw outline of 2nd sequence
  {coor {aload pop lineto} forall}   % draw outline as a whole
  ifelse
  stroke grestore
} bind def
/drawpairs {
  paircolor
  0.7 setlinewidth
  [9 3.01] 9 setdash
  newpath
  pairs {aload pop
     coor exch 1 sub get aload pop moveto
     coor exch 1 sub get aload pop lineto
  } forall
  stroke
} bind def
% draw bases
/drawbases {
  [] 0 setdash
  seqcolor
  0
  coor {
    aload pop moveto
    dup sequence exch 1 getinterval cshow
    1 add
  } forall
  pop
} bind def

/init {
  /Helvetica findfont fsize scalefont setfont
  1 setlinejoin
  1 setlinecap
  0.8 setlinewidth
  72 216 translate
  % find the coordinate range
  /xmax -1000 def /xmin 10000 def
  /ymax -1000 def /ymin 10000 def
  coor {
      aload pop
      dup ymin lt {dup /ymin exch def} if
      dup ymax gt {/ymax exch def} {pop} ifelse
      dup xmin lt {dup /xmin exch def} if
      dup xmax gt {/xmax exch def} {pop} ifelse
  } forall
  /size {xmax xmin sub ymax ymin sub max} bind def
  72 6 mul size div dup scale
  size xmin sub xmax sub 2 div size ymin sub ymax sub 2 div
  translate
} bind def
end
%%EndProlog
RNAplot begin
% data start here
/sequence (\
UAGGCAGGAGCCAAUGGGUAGCGGCAUCUAGCUGUUAACUAGAGUUGUAUGGGAUCGAAGCCCAUCUGCCUAG\
) def
/coor [
[111.048 225.828]
[110.411 210.842]
[109.774 195.855]
[109.138 180.869]
[108.501 165.882]
[107.864 150.896]
[107.228 135.909]
[90.287 133.485]
[77.119 123.918]
[70.321 110.053]
[55.375 111.325]
[40.429 112.597]
[33.978 126.536]
[21.413 135.368]
[6.113 136.719]
[-7.805 130.224]
[-16.598 117.631]
[-17.900 102.328]
[-11.362 88.430]
[1.258 79.676]
[16.566 78.422]
[30.443 85.004]
[39.157 97.651]
[54.103 96.379]
[69.049 95.107]
[75.207 80.836]
[87.466 71.280]
[84.931 56.496]
[82.396 41.712]
[79.861 26.927]
[77.326 12.143]
[63.730 4.417]
[58.330 -10.258]
[63.675 -24.954]
[77.241 -32.731]
[92.623 -29.918]
[102.559 -17.842]
[102.356 -2.206]
[92.110 9.608]
[94.645 24.392]
[97.180 39.177]
[99.715 53.961]
[102.250 68.745]
[111.619 69.950]
[120.452 73.974]
[127.899 80.597]
[133.196 89.344]
[135.744 99.516]
[135.167 110.247]
[150.045 112.152]
[164.924 114.058]
[179.802 115.963]
[194.681 117.868]
[206.049 107.131]
[221.663 106.264]
[234.149 115.678]
[237.613 130.927]
[230.419 144.811]
[215.963 150.775]
[201.071 146.002]
[192.776 132.747]
[177.897 130.841]
[163.019 128.936]
[148.140 127.031]
[133.262 125.126]
[122.214 135.273]
[122.851 150.259]
[123.488 165.245]
[124.124 180.232]
[124.761 195.218]
[125.397 210.205]
[126.034 225.191]
[129.040 244.339]
] def
/pairs [
[1 72]
[2 71]
[3 70]
[4 69]
[5 68]
[6 67]
[7 66]
[10 25]
[11 24]
[12 23]
[27 43]
[28 42]
[29 41]
[30 40]
[31 39]
[49 65]
[50 64]
[51 63]
[52 62]
[53 61]
] def

init

% switch off outline pairs or bases by removing these lines
drawoutline
drawpairs
drawbases
% show it
showpage
end
%%EOF
