%!PS-Adobe-3.0 EPSF-3.0
%%Creator: PS_dot.c,v 1.38 2007/02/02 15:18:13 ivo Exp $, ViennaRNA-1.8.2
%%CreationDate: Thu Apr 11 11:08:15 2013
%%Title: RNA Secondary Structure Plot
%%BoundingBox: 66 210 518 662
%%DocumentFonts: Helvetica
%%Pages: 1
%%EndComments

%Options: 
% to switch off outline pairs of sequence comment or
% delete the appropriate line near the end of the file

%%BeginProlog
/RNAplot 100 dict def
RNAplot begin
/fsize  14 def
/outlinecolor {0.2 setgray} bind def
/paircolor    {0.2 setgray} bind def
/seqcolor     {0   setgray} bind def
/cshow  { dup stringwidth pop -2 div fsize -3 div rmoveto show} bind def
/min { 2 copy gt { exch } if pop } bind def
/max { 2 copy lt { exch } if pop } bind def
/drawoutline {
  gsave outlinecolor newpath
  coor 0 get aload pop 0.8 0 360 arc % draw 5' circle of 1st sequence
  currentdict /cutpoint known        % check if cutpoint is defined
  {coor 0 cutpoint getinterval
   {aload pop lineto} forall         % draw outline of 1st sequence
   coor cutpoint get aload pop
   2 copy moveto 0.8 0 360 arc       % draw 5' circle of 2nd sequence
   coor cutpoint coor length cutpoint sub getinterval
   {aload pop lineto} forall}        % draw outline of 2nd sequence
  {coor {aload pop lineto} forall}   % draw outline as a whole
  ifelse
  stroke grestore
} bind def
/drawpairs {
  paircolor
  0.7 setlinewidth
  [9 3.01] 9 setdash
  newpath
  pairs {aload pop
     coor exch 1 sub get aload pop moveto
     coor exch 1 sub get aload pop lineto
  } forall
  stroke
} bind def
% draw bases
/drawbases {
  [] 0 setdash
  seqcolor
  0
  coor {
    aload pop moveto
    dup sequence exch 1 getinterval cshow
    1 add
  } forall
  pop
} bind def

/init {
  /Helvetica findfont fsize scalefont setfont
  1 setlinejoin
  1 setlinecap
  0.8 setlinewidth
  72 216 translate
  % find the coordinate range
  /xmax -1000 def /xmin 10000 def
  /ymax -1000 def /ymin 10000 def
  coor {
      aload pop
      dup ymin lt {dup /ymin exch def} if
      dup ymax gt {/ymax exch def} {pop} ifelse
      dup xmin lt {dup /xmin exch def} if
      dup xmax gt {/xmax exch def} {pop} ifelse
  } forall
  /size {xmax xmin sub ymax ymin sub max} bind def
  72 6 mul size div dup scale
  size xmin sub xmax sub 2 div size ymin sub ymax sub 2 div
  translate
} bind def
end
%%EndProlog
RNAplot begin
% data start here
/sequence (\
AAGAAAGAAGCAUUAAAUGGUUUGAUGCGGUUGGCUUGAAACCAGCAUGUGAGGGUUCAAUUCCUUCCUUUCUUG\
) def
/coor [
[109.641 225.550]
[109.021 210.563]
[108.401 195.576]
[107.781 180.589]
[107.161 165.601]
[106.541 150.614]
[105.921 135.627]
[88.847 132.421]
[76.109 121.966]
[70.308 107.500]
[55.308 107.500]
[40.308 107.500]
[25.308 107.500]
[18.252 121.082]
[5.685 129.819]
[-9.504 131.704]
[-23.825 126.304]
[-33.987 114.859]
[-37.656 100.000]
[-33.987 85.141]
[-23.825 73.696]
[-9.504 68.296]
[5.685 70.181]
[18.252 78.918]
[25.308 92.500]
[40.308 92.500]
[55.308 92.500]
[70.308 92.500]
[78.345 78.345]
[92.500 70.308]
[92.500 55.308]
[92.500 40.308]
[92.500 25.308]
[92.500 10.308]
[80.405 0.396]
[77.563 -14.981]
[85.314 -28.562]
[100.000 -33.935]
[114.686 -28.562]
[122.437 -14.981]
[119.595 0.396]
[107.500 10.308]
[107.500 25.308]
[107.500 40.308]
[107.500 55.308]
[107.500 70.308]
[117.114 73.290]
[125.551 79.400]
[131.791 88.174]
[134.998 98.820]
[134.621 110.283]
[149.416 112.752]
[164.212 115.221]
[179.007 117.690]
[193.803 120.158]
[205.571 109.860]
[221.206 109.588]
[233.326 119.469]
[236.208 134.838]
[228.492 148.439]
[213.820 153.850]
[199.120 148.515]
[191.334 134.954]
[176.538 132.485]
[161.743 130.016]
[146.948 127.547]
[132.152 125.078]
[120.909 135.007]
[121.529 149.994]
[122.148 164.982]
[122.768 179.969]
[123.388 194.956]
[124.008 209.943]
[124.628 224.930]
[127.613 244.081]
] def
/pairs [
[1 74]
[2 73]
[3 72]
[4 71]
[5 70]
[6 69]
[7 68]
[10 28]
[11 27]
[12 26]
[13 25]
[30 46]
[31 45]
[32 44]
[33 43]
[34 42]
[51 67]
[52 66]
[53 65]
[54 64]
[55 63]
] def

init

% switch off outline pairs or bases by removing these lines
drawoutline
drawpairs
drawbases
% show it
showpage
end
%%EOF
